SU_DA1_阿部大空_期末レポート
…
HR <- read_csv("datan.csv",
               na = ".")

## Rows: 50 Columns: 3
## ── Column specification ────────────────────────────────────────────────────────
## Delimiter: ","
## chr (1): 国名
## dbl (2): seniorrate, gini
## 
## ℹ Use `spec()` to retrieve the full column specification for this data.
## ℹ Specify the column types or set `show_col_types = FALSE` to quiet this message.

HR

# A tibble: 50 × 3
   国名         seniorrate  gini
   <chr>             <dbl> <dbl>
 1 日本               29.9  37.9
 2 イタリア           24    42  
 3 フィンランド       23.3  26.8
 4 ドイツ             22.4  27  
 5 ブルガリア         22.4  45.3
 6 クロアチア         22.3  32  
 7 フランス           21.7  30.6
 8 スロベニア         20.9  23.7
 9 リトアニア         20.8  35.5
10 チェコ             20.6  24.9
# ℹ 40 more rows
…
